stm32f1xx_hal_uart.c:352:19:HAL_UART_Init	16	static
stm32f1xx_hal_uart.c:429:19:HAL_HalfDuplex_Init	16	static
stm32f1xx_hal_uart.c:504:19:HAL_LIN_Init	16	static
stm32f1xx_hal_uart.c:590:19:HAL_MultiProcessor_Init	24	static
stm32f1xx_hal_uart.c:669:19:HAL_UART_DeInit	16	static
stm32f1xx_hal_uart.c:714:13:HAL_UART_MspInit	16	static
stm32f1xx_hal_uart.c:729:13:HAL_UART_MspDeInit	16	static
stm32f1xx_hal_uart.c:1139:19:HAL_UART_Transmit	48	static
stm32f1xx_hal_uart.c:1227:19:HAL_UART_Receive	48	static
stm32f1xx_hal_uart.c:1318:19:HAL_UART_Transmit_IT	24	static
stm32f1xx_hal_uart.c:1363:19:HAL_UART_Receive_IT	24	static
stm32f1xx_hal_uart.c:1398:19:HAL_UART_Transmit_DMA	32	static
stm32f1xx_hal_uart.c:1466:19:HAL_UART_Receive_DMA	24	static
stm32f1xx_hal_uart.c:1496:19:HAL_UART_DMAPause	24	static
stm32f1xx_hal_uart.c:1533:19:HAL_UART_DMAResume	24	static
stm32f1xx_hal_uart.c:1569:19:HAL_UART_DMAStop	24	static
stm32f1xx_hal_uart.c:1624:19:HAL_UARTEx_ReceiveToIdle	40	static
stm32f1xx_hal_uart.c:1750:19:HAL_UARTEx_ReceiveToIdle_IT	32	static
stm32f1xx_hal_uart.c:1811:19:HAL_UARTEx_ReceiveToIdle_DMA	32	static
stm32f1xx_hal_uart.c:1868:19:HAL_UART_Abort	16	static
stm32f1xx_hal_uart.c:1957:19:HAL_UART_AbortTransmit	16	static
stm32f1xx_hal_uart.c:2008:19:HAL_UART_AbortReceive	16	static
stm32f1xx_hal_uart.c:2069:19:HAL_UART_Abort_IT	24	static
stm32f1xx_hal_uart.c:2204:19:HAL_UART_AbortTransmit_IT	16	static
stm32f1xx_hal_uart.c:2281:19:HAL_UART_AbortReceive_IT	16	static
stm32f1xx_hal_uart.c:2359:6:HAL_UART_IRQHandler	48	static
stm32f1xx_hal_uart.c:2589:13:HAL_UART_TxCpltCallback	16	static
stm32f1xx_hal_uart.c:2604:13:HAL_UART_TxHalfCpltCallback	16	static
stm32f1xx_hal_uart.c:2619:13:HAL_UART_RxCpltCallback	16	static
stm32f1xx_hal_uart.c:2634:13:HAL_UART_RxHalfCpltCallback	16	static
stm32f1xx_hal_uart.c:2649:13:HAL_UART_ErrorCallback	16	static
stm32f1xx_hal_uart.c:2663:13:HAL_UART_AbortCpltCallback	16	static
stm32f1xx_hal_uart.c:2678:13:HAL_UART_AbortTransmitCpltCallback	16	static
stm32f1xx_hal_uart.c:2693:13:HAL_UART_AbortReceiveCpltCallback	16	static
stm32f1xx_hal_uart.c:2710:13:HAL_UARTEx_RxEventCallback	16	static
stm32f1xx_hal_uart.c:2750:19:HAL_LIN_SendBreak	16	static
stm32f1xx_hal_uart.c:2777:19:HAL_MultiProcessor_EnterMuteMode	16	static
stm32f1xx_hal_uart.c:2804:19:HAL_MultiProcessor_ExitMuteMode	16	static
stm32f1xx_hal_uart.c:2831:19:HAL_HalfDuplex_EnableTransmitter	24	static
stm32f1xx_hal_uart.c:2866:19:HAL_HalfDuplex_EnableReceiver	24	static
stm32f1xx_hal_uart.c:2923:23:HAL_UART_GetState	24	static
stm32f1xx_hal_uart.c:2938:10:HAL_UART_GetError	16	static
stm32f1xx_hal_uart.c:2983:13:UART_DMATransmitCplt	24	static
stm32f1xx_hal_uart.c:3018:13:UART_DMATxHalfCplt	24	static
stm32f1xx_hal_uart.c:3037:13:UART_DMAReceiveCplt	24	static
stm32f1xx_hal_uart.c:3094:13:UART_DMARxHalfCplt	24	static
stm32f1xx_hal_uart.c:3129:13:UART_DMAError	24	static
stm32f1xx_hal_uart.c:3170:26:UART_WaitOnFlagUntilTimeout	24	static
stm32f1xx_hal_uart.c:3208:19:UART_Start_Receive_IT	24	static
stm32f1xx_hal_uart.c:3243:19:UART_Start_Receive_DMA	32	static
stm32f1xx_hal_uart.c:3293:13:UART_EndTxTransfer	16	static
stm32f1xx_hal_uart.c:3307:13:UART_EndRxTransfer	16	static
stm32f1xx_hal_uart.c:3331:13:UART_DMAAbortOnError	24	static
stm32f1xx_hal_uart.c:3355:13:UART_DMATxAbortCallback	24	static
stm32f1xx_hal_uart.c:3401:13:UART_DMARxAbortCallback	24	static
stm32f1xx_hal_uart.c:3447:13:UART_DMATxOnlyAbortCallback	24	static
stm32f1xx_hal_uart.c:3475:13:UART_DMARxOnlyAbortCallback	24	static
stm32f1xx_hal_uart.c:3501:26:UART_Transmit_IT	24	static
stm32f1xx_hal_uart.c:3541:26:UART_EndTransmit_IT	16	static
stm32f1xx_hal_uart.c:3566:26:UART_Receive_IT	32	static
stm32f1xx_hal_uart.c:3664:13:UART_SetConfig	32	static
